…
# Question 1:

## Include and tidy the data:

``` r
homocide <- read_csv("Dataset/homicide_data/homicide-data.csv")
homocide
```

    ## # A tibble: 52,179 x 12
    ##    uid   reported_date victim_last victim_first victim_race victim_age
    ##    <chr>         <dbl> <chr>       <chr>        <chr>       <chr>     
    ##  1 Alb-~      20100504 GARCIA      JUAN         Hispanic    78        
    ##  2 Alb-~      20100216 MONTOYA     CAMERON      Hispanic    17        
    ##  3 Alb-~      20100601 SATTERFIELD VIVIANA      White       15        
    ##  4 Alb-~      20100101 MENDIOLA    CARLOS       Hispanic    32        
    ##  5 Alb-~      20100102 MULA        VIVIAN       White       72        
    ##  6 Alb-~      20100126 BOOK        GERALDINE    White       91        
    ##  7 Alb-~      20100127 MALDONADO   DAVID        Hispanic    52        
    ##  8 Alb-~      20100127 MALDONADO   CONNIE       Hispanic    52        
    ##  9 Alb-~      20100130 MARTIN-LEY~ GUSTAVO      White       56        
    ## 10 Alb-~      20100210 HERRERA     ISRAEL       Hispanic    43        
    ## # ... with 52,169 more rows, and 6 more variables: victim_sex <chr>,
    ## #   city <chr>, state <chr>, lat <dbl>, lon <dbl>, disposition <chr>
…
      disposition == "Open/No arrest"        ~ "unsolved",
      disposition == "Closed by arrest"      ~ "solved",
    )) 
homocide_summary <-
  homocide %>% 
  select(city_state, result) %>% 
  group_by(city_state) %>% 
  summarise(
    total_case = n(),
    total_unsolved = sum(result == "unsolved")
  )
homocide_summary
```

    ## # A tibble: 51 x 3
    ##    city_state     total_case total_unsolved
    ##    <chr>               <int>          <int>
    ##  1 Albuquerque_NM        378            146
    ##  2 Atlanta_GA            973            373
    ##  3 Baltimore_MD         2827           1825
    ##  4 Baton Rouge_LA        424            196
    ##  5 Birmingham_AL         800            347
    ##  6 Boston_MA             614            310
    ##  7 Buffalo_NY            521            319
    ##  8 Charlotte_NC          687            206
    ##  9 Chicago_IL           5535           4073
    ## 10 Cincinnati_OH         694            309
    ## # ... with 41 more rows
…
    ## # A tibble: 1 x 4
    ##   city_state   estimate conf.low conf.high
    ##   <chr>           <dbl>    <dbl>     <dbl>
    ## 1 Baltimore_MD    0.646    0.628     0.663

## Run the test for all the city:

``` r
homocide_result <-
  homocide_summary %>% 
  prop_test_(.)
homocide_result
```

    ## # A tibble: 51 x 4
    ##    city_state     estimate conf.low conf.high
    ##    <chr>             <dbl>    <dbl>     <dbl>
    ##  1 Albuquerque_NM    0.386    0.337     0.438
    ##  2 Atlanta_GA        0.383    0.353     0.415
    ##  3 Baltimore_MD      0.646    0.628     0.663
    ##  4 Baton Rouge_LA    0.462    0.414     0.511
    ##  5 Birmingham_AL     0.434    0.399     0.469
    ##  6 Boston_MA         0.505    0.465     0.545
    ##  7 Buffalo_NY        0.612    0.569     0.654
    ##  8 Charlotte_NC      0.300    0.266     0.336
    ##  9 Chicago_IL        0.736    0.724     0.747
    ## 10 Cincinnati_OH     0.445    0.408     0.483
    ## # ... with 41 more rows
…
  mutate(arm = case_when(
    arm == "con" ~ "Control",
    arm == "exp" ~ "Expose"
  )) %>% 
  mutate(subject_id = str_extract(subject_id, "^\\d{2}")) %>% 
  mutate(subject_id = as.numeric(subject_id)) %>% 
  pivot_longer(week_1:week_8,
               names_to = "week",
               values_to = "observation",
               names_prefix = "week_") %>% 
  mutate(week = as.numeric(week))
study_data_tidy
```

    ## # A tibble: 160 x 4
    ##    arm     subject_id  week observation
    ##    <chr>        <dbl> <dbl>       <dbl>
    ##  1 Control          1     1        0.2 
    ##  2 Control          1     2       -1.31
    ##  3 Control          1     3        0.66
    ##  4 Control          1     4        1.96
    ##  5 Control          1     5        0.23
    ##  6 Control          1     6        1.09
    ##  7 Control          1     7        0.05
    ##  8 Control          1     8        1.94
    ##  9 Control          2     1        1.13
    ## 10 Control          2     2       -0.88
    ## # ... with 150 more rows
…
